module demo-from-gorilla

go 1.21.0

require (
	github.com/chzyer/readline v1.5.1 // indirect
	github.com/fatih/color v1.15.0 // indirect
	github.com/gorilla/websocket v1.5.0 // indirect
	github.com/hashrocket/ws v0.2.1 // indirect
	github.com/inconshreveable/mousetrap v1.1.0 // indirect
	github.com/mattn/go-colorable v0.1.13 // indirect
	github.com/mattn/go-isatty v0.0.19 // indirect
	github.com/spf13/cobra v1.7.0 // indirect
	github.com/spf13/pflag v1.0.5 // indirect
	golang.org/x/sys v0.13.0 // indirect
)
