module conn-k8s

go 1.22.2

require k8s.io/client-go v0.30.0

require (
	github.com/davecgh/go-spew v1.1.1 // indirect
	github.com/go-logr/logr v1.4.1 // indirect
	github.com/gogo/protobuf v1.3.2 // indirect
	github.com/golang/protobuf v1.5.4 // indirect
	github.com/google/gofuzz v1.2.0 // indirect
	github.com/imdario/mergo v0.3.6 // indirect
	github.com/json-iterator/go v1.1.12 // indirect
	github.com/kr/text v0.2.0 // indirect
	github.com/modern-go/concurrent v0.0.0-20180306012644-bacd9c7ef1dd // indirect
	github.com/modern-go/reflect2 v1.0.2 // indirect
	github.com/spf13/pflag v1.0.5 // indirect
	golang.org/x/net v0.23.0 // indirect
	golang.org/x/oauth2 v0.10.0 // indirect
	golang.org/x/sys v0.18.0 // indirect
	golang.org/x/term v0.18.0 // indirect
	golang.org/x/text v0.14.0 // indirect
	golang.org/x/time v0.3.0 // indirect
	google.golang.org/appengine v1.6.7 // indirect
	google.golang.org/protobuf v1.33.0 // indirect
	gopkg.in/check.v1 v1.0.0-20201130134442-10cb98267c6c // indirect
	gopkg.in/inf.v0 v0.9.1 // indirect
	gopkg.in/yaml.v2 v2.4.0 // indirect
	k8s.io/apimachinery v0.30.0 // indirect
	k8s.io/klog/v2 v2.120.1 // indirect
	k8s.io/utils v0.0.0-20230726121419-3b25d923346b // indirect
	sigs.k8s.io/json v0.0.0-20221116044647-bc3834ca7abd // indirect
	sigs.k8s.io/structured-merge-diff/v4 v4.4.1 // indirect
	sigs.k8s.io/yaml v1.3.0 // indirect
)
