module openapi

go 1.21.0

require (
	github.com/kubesimplify/ksctl v1.1.0
	goa.design/goa/v3 v3.12.4
)

require (
	github.com/AnatolyRugalev/goregen v0.1.0 // indirect
	github.com/Azure/azure-sdk-for-go/sdk/azcore v1.7.0 // indirect
	github.com/Azure/azure-sdk-for-go/sdk/azidentity v1.3.0 // indirect
	github.com/Azure/azure-sdk-for-go/sdk/internal v1.3.0 // indirect
	github.com/Azure/azure-sdk-for-go/sdk/resourcemanager/compute/armcompute v1.0.0 // indirect
	github.com/Azure/azure-sdk-for-go/sdk/resourcemanager/compute/armcompute/v5 v5.1.0 // indirect
	github.com/Azure/azure-sdk-for-go/sdk/resourcemanager/containerservice/armcontainerservice v1.0.0 // indirect
	github.com/Azure/azure-sdk-for-go/sdk/resourcemanager/containerservice/armcontainerservice/v4 v4.1.0 // indirect
	github.com/Azure/azure-sdk-for-go/sdk/resourcemanager/network/armnetwork v1.1.0 // indirect
	github.com/Azure/azure-sdk-for-go/sdk/resourcemanager/resources/armresources v1.1.1 // indirect
	github.com/Azure/azure-sdk-for-go/sdk/resourcemanager/resources/armsubscriptions v1.2.0 // indirect
	github.com/AzureAD/microsoft-authentication-library-for-go v1.0.0 // indirect
	github.com/BurntSushi/toml v1.0.0 // indirect
	github.com/alessio/shellescape v1.4.1 // indirect
	github.com/civo/civogo v0.3.42 // indirect
	github.com/davecgh/go-spew v1.1.1 // indirect
	github.com/dimfeld/httppath v0.0.0-20170720192232-ee938bf73598 // indirect
	github.com/dimfeld/httptreemux/v5 v5.5.0 // indirect
	github.com/emicklei/go-restful/v3 v3.9.0 // indirect
	github.com/evanphx/json-patch/v5 v5.6.0 // indirect
	github.com/fatih/color v1.15.0 // indirect
	github.com/go-logr/logr v1.2.3 // indirect
	github.com/go-openapi/jsonpointer v0.19.6 // indirect
	github.com/go-openapi/jsonreference v0.20.1 // indirect
	github.com/go-openapi/swag v0.22.3 // indirect
	github.com/gogo/protobuf v1.3.2 // indirect
	github.com/golang-jwt/jwt/v4 v4.5.0 // indirect
	github.com/golang/protobuf v1.5.3 // indirect
	github.com/google/gnostic v0.5.7-v3refs // indirect
	github.com/google/go-cmp v0.5.9 // indirect
	github.com/google/go-querystring v1.1.0 // indirect
	github.com/google/gofuzz v1.1.0 // indirect
	github.com/google/safetext v0.0.0-20220905092116-b49f7bc46da2 // indirect
	github.com/google/uuid v1.3.0 // indirect
	github.com/gorilla/websocket v1.5.0 // indirect
	github.com/imdario/mergo v0.3.6 // indirect
	github.com/inconshreveable/mousetrap v1.0.0 // indirect
	github.com/josharian/intern v1.0.0 // indirect
	github.com/json-iterator/go v1.1.12 // indirect
	github.com/kylelemons/godebug v1.1.0 // indirect
	github.com/mailru/easyjson v0.7.7 // indirect
	github.com/manveru/faker v0.0.0-20171103152722-9fbc68a78c4d // indirect
	github.com/mattn/go-colorable v0.1.13 // indirect
	github.com/mattn/go-isatty v0.0.17 // indirect
	github.com/modern-go/concurrent v0.0.0-20180306012644-bacd9c7ef1dd // indirect
	github.com/modern-go/reflect2 v1.0.2 // indirect
	github.com/munnerz/goautoneg v0.0.0-20191010083416-a7dc8b61c822 // indirect
	github.com/pelletier/go-toml v1.9.4 // indirect
	github.com/pkg/browser v0.0.0-20210911075715-681adbf594b8 // indirect
	github.com/pkg/errors v0.9.1 // indirect
	github.com/rodaine/table v1.1.0 // indirect
	github.com/sergi/go-diff v1.3.1 // indirect
	github.com/spf13/cobra v1.4.0 // indirect
	github.com/spf13/pflag v1.0.5 // indirect
	golang.org/x/crypto v0.12.0 // indirect
	golang.org/x/mod v0.12.0 // indirect
	golang.org/x/net v0.14.0 // indirect
	golang.org/x/oauth2 v0.0.0-20220223155221-ee480838109b // indirect
	golang.org/x/sys v0.11.0 // indirect
	golang.org/x/term v0.11.0 // indirect
	golang.org/x/text v0.12.0 // indirect
	golang.org/x/time v0.0.0-20220210224613-90d013bbcef8 // indirect
	golang.org/x/tools v0.12.0 // indirect
	google.golang.org/appengine v1.6.7 // indirect
	google.golang.org/protobuf v1.31.0 // indirect
	gopkg.in/inf.v0 v0.9.1 // indirect
	gopkg.in/yaml.v2 v2.4.0 // indirect
	gopkg.in/yaml.v3 v3.0.1 // indirect
	k8s.io/api v0.27.4 // indirect
	k8s.io/apimachinery v0.27.4 // indirect
	k8s.io/client-go v0.27.4 // indirect
	k8s.io/klog/v2 v2.90.1 // indirect
	k8s.io/kube-openapi v0.0.0-20230501164219-8b0f38b5fd1f // indirect
	k8s.io/utils v0.0.0-20230209194617-a36077c30491 // indirect
	sigs.k8s.io/json v0.0.0-20221116044647-bc3834ca7abd // indirect
	sigs.k8s.io/kind v0.20.0 // indirect
	sigs.k8s.io/structured-merge-diff/v4 v4.2.3 // indirect
	sigs.k8s.io/yaml v1.3.0 // indirect
)
