module beautiful-terminal

go 1.21.7

require (
	github.com/creack/pty v1.1.21
	github.com/opencontainers/go-digest v1.0.0
	github.com/vito/midterm v0.1.4
	github.com/vito/progrock v0.10.1
)

require (
	github.com/aymanbagabas/go-osc52/v2 v2.0.1 // indirect
	github.com/charmbracelet/bubbles v0.16.1 // indirect
	github.com/charmbracelet/bubbletea v0.24.2 // indirect
	github.com/charmbracelet/harmonica v0.2.0 // indirect
	github.com/charmbracelet/lipgloss v0.7.1 // indirect
	github.com/containerd/console v1.0.4-0.20230313162750-1ae8d489ac81 // indirect
	github.com/fogleman/ease v0.0.0-20170301025033-8da417bf1776 // indirect
	github.com/golang/protobuf v1.5.3 // indirect
	github.com/jonboulle/clockwork v0.4.0 // indirect
	github.com/lucasb-eyer/go-colorful v1.2.0 // indirect
	github.com/mattn/go-isatty v0.0.18 // indirect
	github.com/mattn/go-localereader v0.0.1 // indirect
	github.com/mattn/go-runewidth v0.0.14 // indirect
	github.com/muesli/ansi v0.0.0-20230316100256-276c6243b2f6 // indirect
	github.com/muesli/cancelreader v0.2.2 // indirect
	github.com/muesli/reflow v0.3.0 // indirect
	github.com/muesli/termenv v0.15.1 // indirect
	github.com/pkg/browser v0.0.0-20210911075715-681adbf594b8 // indirect
	github.com/rivo/uniseg v0.4.4 // indirect
	github.com/zmb3/spotify/v2 v2.3.1 // indirect
	golang.org/x/exp v0.0.0-20230425010034-47ecfdc1ba53 // indirect
	golang.org/x/net v0.12.0 // indirect
	golang.org/x/oauth2 v0.7.0 // indirect
	golang.org/x/sync v0.3.0 // indirect
	golang.org/x/sys v0.10.0 // indirect
	golang.org/x/term v0.10.0 // indirect
	golang.org/x/text v0.11.0 // indirect
	google.golang.org/appengine v1.6.7 // indirect
	google.golang.org/genproto v0.0.0-20230306155012-7f2fa6fef1f4 // indirect
	google.golang.org/grpc v1.55.0 // indirect
	google.golang.org/protobuf v1.30.0 // indirect
)
