module k8s-go-client

go 1.21.0

require (
	github.com/pulumi/pulumi-kubernetes/sdk/v4 v4.1.1
	github.com/pulumi/pulumi/sdk/v3 v3.80.0
	k8s.io/api v0.28.1
	k8s.io/apiextensions-apiserver v0.28.1
	k8s.io/apimachinery v0.28.1
	k8s.io/client-go v0.28.1
)

require (
	github.com/Microsoft/go-winio v0.5.2 // indirect
	github.com/ProtonMail/go-crypto v0.0.0-20221026131551-cf6655e29de4 // indirect
	github.com/acomagu/bufpipe v1.0.3 // indirect
	github.com/aead/chacha20 v0.0.0-20180709150244-8b13a72661da // indirect
	github.com/agext/levenshtein v1.2.1 // indirect
	github.com/apparentlymart/go-textseg/v13 v13.0.0 // indirect
	github.com/atotto/clipboard v0.1.4 // indirect
	github.com/aymanbagabas/go-osc52/v2 v2.0.1 // indirect
	github.com/blang/semver v3.5.1+incompatible // indirect
	github.com/charmbracelet/bubbles v0.16.1 // indirect
	github.com/charmbracelet/bubbletea v0.24.2 // indirect
	github.com/charmbracelet/lipgloss v0.7.1 // indirect
	github.com/cheggaaa/pb v1.0.29 // indirect
	github.com/cloudflare/circl v1.3.3 // indirect
	github.com/containerd/console v1.0.4-0.20230313162750-1ae8d489ac81 // indirect
	github.com/davecgh/go-spew v1.1.1 // indirect
	github.com/djherbis/times v1.5.0 // indirect
	github.com/emicklei/go-restful/v3 v3.9.0 // indirect
	github.com/emirpasic/gods v1.18.1 // indirect
	github.com/go-git/gcfg v1.5.0 // indirect
	github.com/go-git/go-billy/v5 v5.4.0 // indirect
	github.com/go-git/go-git/v5 v5.6.0 // indirect
	github.com/go-logr/logr v1.2.4 // indirect
	github.com/go-openapi/jsonpointer v0.19.6 // indirect
	github.com/go-openapi/jsonreference v0.20.2 // indirect
	github.com/go-openapi/swag v0.22.3 // indirect
	github.com/gogo/protobuf v1.3.2 // indirect
	github.com/golang/glog v1.1.0 // indirect
	github.com/golang/protobuf v1.5.3 // indirect
	github.com/google/gnostic-models v0.6.8 // indirect
	github.com/google/go-cmp v0.5.9 // indirect
	github.com/google/gofuzz v1.2.0 // indirect
	github.com/google/uuid v1.3.0 // indirect
	github.com/grpc-ecosystem/grpc-opentracing v0.0.0-20180507213350-8e809c8a8645 // indirect
	github.com/hashicorp/errwrap v1.1.0 // indirect
	github.com/hashicorp/go-multierror v1.1.1 // indirect
	github.com/hashicorp/hcl/v2 v2.16.1 // indirect
	github.com/imdario/mergo v0.3.13 // indirect
	github.com/inconshreveable/mousetrap v1.1.0 // indirect
	github.com/jbenet/go-context v0.0.0-20150711004518-d14ea06fba99 // indirect
	github.com/josharian/intern v1.0.0 // indirect
	github.com/json-iterator/go v1.1.12 // indirect
	github.com/kevinburke/ssh_config v1.2.0 // indirect
	github.com/lucasb-eyer/go-colorful v1.2.0 // indirect
	github.com/mailru/easyjson v0.7.7 // indirect
	github.com/mattn/go-isatty v0.0.18 // indirect
	github.com/mattn/go-localereader v0.0.1 // indirect
	github.com/mattn/go-runewidth v0.0.14 // indirect
	github.com/mitchellh/go-ps v1.0.0 // indirect
	github.com/mitchellh/go-wordwrap v0.0.0-20150314170334-ad45545899c7 // indirect
	github.com/modern-go/concurrent v0.0.0-20180306012644-bacd9c7ef1dd // indirect
	github.com/modern-go/reflect2 v1.0.2 // indirect
	github.com/muesli/ansi v0.0.0-20211018074035-2e021307bc4b // indirect
	github.com/muesli/cancelreader v0.2.2 // indirect
	github.com/muesli/reflow v0.3.0 // indirect
	github.com/muesli/termenv v0.15.1 // indirect
	github.com/munnerz/goautoneg v0.0.0-20191010083416-a7dc8b61c822 // indirect
	github.com/opentracing/basictracer-go v1.1.0 // indirect
	github.com/opentracing/opentracing-go v1.2.0 // indirect
	github.com/pjbgf/sha1cd v0.3.0 // indirect
	github.com/pkg/errors v0.9.1 // indirect
	github.com/pkg/term v1.1.0 // indirect
	github.com/rivo/uniseg v0.4.4 // indirect
	github.com/rogpeppe/go-internal v1.10.0 // indirect
	github.com/sabhiram/go-gitignore v0.0.0-20210923224102-525f6e181f06 // indirect
	github.com/santhosh-tekuri/jsonschema/v5 v5.0.0 // indirect
	github.com/sergi/go-diff v1.2.0 // indirect
	github.com/skeema/knownhosts v1.1.0 // indirect
	github.com/spf13/cobra v1.7.0 // indirect
	github.com/spf13/pflag v1.0.5 // indirect
	github.com/texttheater/golang-levenshtein v1.0.1 // indirect
	github.com/tweekmonster/luser v0.0.0-20161003172636-3fa38070dbd7 // indirect
	github.com/uber/jaeger-client-go v2.30.0+incompatible // indirect
	github.com/uber/jaeger-lib v2.4.1+incompatible // indirect
	github.com/xanzy/ssh-agent v0.3.3 // indirect
	github.com/zclconf/go-cty v1.12.1 // indirect
	go.uber.org/atomic v1.10.0 // indirect
	golang.org/x/crypto v0.11.0 // indirect
	golang.org/x/net v0.13.0 // indirect
	golang.org/x/oauth2 v0.8.0 // indirect
	golang.org/x/sync v0.2.0 // indirect
	golang.org/x/sys v0.10.0 // indirect
	golang.org/x/term v0.10.0 // indirect
	golang.org/x/text v0.11.0 // indirect
	golang.org/x/time v0.3.0 // indirect
	google.golang.org/appengine v1.6.7 // indirect
	google.golang.org/genproto/googleapis/rpc v0.0.0-20230706204954-ccb25ca9f130 // indirect
	google.golang.org/grpc v1.57.0 // indirect
	google.golang.org/protobuf v1.31.0 // indirect
	gopkg.in/inf.v0 v0.9.1 // indirect
	gopkg.in/warnings.v0 v0.1.2 // indirect
	gopkg.in/yaml.v2 v2.4.0 // indirect
	gopkg.in/yaml.v3 v3.0.1 // indirect
	k8s.io/klog/v2 v2.100.1 // indirect
	k8s.io/kube-openapi v0.0.0-20230717233707-2695361300d9 // indirect
	k8s.io/utils v0.0.0-20230406110748-d93618cff8a2 // indirect
	lukechampine.com/frand v1.4.2 // indirect
	sigs.k8s.io/json v0.0.0-20221116044647-bc3834ca7abd // indirect
	sigs.k8s.io/structured-merge-diff/v4 v4.2.3 // indirect
	sigs.k8s.io/yaml v1.3.0 // indirect
	sourcegraph.com/sourcegraph/appdash v0.0.0-20211028080628-e2786a622600 // indirect
)
