module http-server

go 1.22.5

replace grpc-server => ../grpc-server

require (
	github.com/go-openapi/errors v0.22.0
	github.com/go-openapi/runtime v0.28.0
	github.com/go-openapi/strfmt v0.23.0
	github.com/go-openapi/swag v0.23.0
	github.com/go-openapi/validate v0.24.0
	github.com/go-playground/validator/v10 v10.22.0
	github.com/gorilla/handlers v1.5.2
	github.com/gorilla/mux v1.8.1
	gotest.tools/v3 v3.5.1
	grpc-server v0.0.0-00010101000000-000000000000
)

require (
	github.com/asaskevich/govalidator v0.0.0-20230301143203-a9d515a09cc2 // indirect
	github.com/felixge/httpsnoop v1.0.3 // indirect
	github.com/gabriel-vasile/mimetype v1.4.3 // indirect
	github.com/go-logr/logr v1.4.1 // indirect
	github.com/go-logr/stdr v1.2.2 // indirect
	github.com/go-openapi/analysis v0.23.0 // indirect
	github.com/go-openapi/jsonpointer v0.21.0 // indirect
	github.com/go-openapi/jsonreference v0.21.0 // indirect
	github.com/go-openapi/loads v0.22.0 // indirect
	github.com/go-openapi/spec v0.21.0 // indirect
	github.com/go-playground/locales v0.14.1 // indirect
	github.com/go-playground/universal-translator v0.18.1 // indirect
	github.com/google/go-cmp v0.6.0 // indirect
	github.com/google/uuid v1.6.0 // indirect
	github.com/josharian/intern v1.0.0 // indirect
	github.com/leodido/go-urn v1.4.0 // indirect
	github.com/mailru/easyjson v0.7.7 // indirect
	github.com/mitchellh/mapstructure v1.5.0 // indirect
	github.com/oklog/ulid v1.3.1 // indirect
	github.com/opentracing/opentracing-go v1.2.0 // indirect
	go.mongodb.org/mongo-driver v1.14.0 // indirect
	go.opentelemetry.io/otel v1.24.0 // indirect
	go.opentelemetry.io/otel/metric v1.24.0 // indirect
	go.opentelemetry.io/otel/trace v1.24.0 // indirect
	golang.org/x/crypto v0.23.0 // indirect
	golang.org/x/net v0.25.0 // indirect
	golang.org/x/sync v0.7.0 // indirect
	golang.org/x/sys v0.20.0 // indirect
	golang.org/x/text v0.15.0 // indirect
	google.golang.org/genproto/googleapis/rpc v0.0.0-20240528184218-531527333157 // indirect
	google.golang.org/grpc v1.65.0 // indirect
	google.golang.org/protobuf v1.34.2 // indirect
	gopkg.in/yaml.v3 v3.0.1 // indirect
)
